{
    "bodyTemplate1Data": {
        "type": "object",
        "objectId": "bt1Sample",
        "backgroundImage": {
            "contentDescription": null,
            "smallSourceUrl": null,
            "largeSourceUrl": null,
            "sources": [
                {
                    "url": "http://ilsp.mx/images-ilsp/home-slider/slider3.jpg",
                    "size": "small",
                    "widthPixels": 0,
                    "heightPixels": 0
                },
                {
                    "url": "http://ilsp.mx/images-ilsp/home-slider/slider3.jpg",
                    "size": "large",
                    "widthPixels": 0,
                    "heightPixels": 0
                }
            ]
        },
        "logoUrl": "http://ilsp.mx/images-ilsp/log2.png",
        "title": "Servicios de Bitácoras",
        "textContent": {
            "primaryText": {
                "type": "PlainText",
                "text": "En este momento hay 50 líneas transportistas con viajes. La línea transportista con más viajes es LINEA DE PRUEBA con 60 viajes."
            }
        }
    }
}